{
	"code": 0,
	"data": {
		"cinemas": [{
			"addr": "东城区滨河路乙1号雍和航星园74-76号楼",
			"cityId": 1,
			"dis": 0,
			"follow": 0,
			"id": 15280,
			"labels": [{
				"color": "#579daf",
				"name": "退"
			}, {
				"color": "#579daf",
				"name": "改签"
			}, {
				"color": "#ff9900",
				"name": "小吃"
			}, {
				"color": "#ff9900",
				"name": "折扣卡"
			}, {
				"color": "#579daf",
				"name": "4K厅",
				"url": ""
			}],
			"lat": 39.9512,
			"lng": 116.42075,
			"mark": 0,
			"nm": "青春光线电影院",
			"poiId": 99389254,
			"price": 38.9,
			"promotion": {
				"cardPromotionTag": "开卡特惠，首单2张立减8元",
				"merchantActivityTag": "观影套餐限量特惠",
				"platformActivityTag": "暴裂无声等5部影片特惠"
			},
			"referencePrice": "0",
			"score": 930.303,
			"sellPrice": "38.9",
			"shopId": 58556187,
			"tag": {
				"allowRefund": 1,
				"buyout": 0,
				"cityCardTag": 0,
				"deal": 0,
				"endorse": 1,
				"hallType": ["4K厅"],
				"hallTypeVOList": [{
					"name": "4K厅",
					"url": ""
				}],
				"sell": 1,
				"snack": 1,
				"vipTag": "折扣卡"
			}
		}, {
			"addr": "丰台区光彩路京港城生活广场6楼（京深海鲜市场对面）",
			"cityId": 1,
			"dis": 0,
			"follow": 0,
			"id": 17280,
			"labels": [{
				"color": "#579daf",
				"name": "退"
			}, {
				"color": "#579daf",
				"name": "改签"
			}, {
				"color": "#ff9900",
				"name": "小吃"
			}, {
				"color": "#ff9900",
				"name": "折扣卡"
			}],
			"lat": 39.8405,
			"lng": 116.41459,
			"mark": 0,
			"nm": "万达影院(京港城店)",
			"poiId": 156648558,
			"price": 27.9,
			"promotion": {
				"cardPromotionTag": "开卡特惠，首单最高立减30元！",
				"platformActivityTag": "狂暴巨兽特惠"
			},
			"referencePrice": "0",
			"score": 915.3846,
			"sellPrice": "27.9",
			"shopId": 83503582,
			"tag": {
				"allowRefund": 1,
				"buyout": 0,
				"cityCardTag": 0,
				"deal": 0,
				"endorse": 1,
				"hallTypeVOList": [],
				"sell": 1,
				"snack": 1,
				"vipTag": "折扣卡"
			}
		}, {
			"addr": "朝阳区林萃西里16号楼华创生活广场F1层",
			"cityId": 1,
			"dis": 0,
			"follow": 0,
			"id": 23901,
			"labels": [{
				"color": "#579daf",
				"name": "退"
			}, {
				"color": "#579daf",
				"name": "改签"
			}, {
				"color": "#ff9900",
				"name": "小吃"
			}, {
				"color": "#ff9900",
				"name": "折扣卡"
			}],
			"lat": 40.010098,
			"lng": 116.372604,
			"mark": 0,
			"nm": "百誉朗克影城",
			"poiId": 160306126,
			"price": 23.9,
			"promotion": {
				"cardPromotionTag": "开卡特惠，首单2张立减8元",
				"platformActivityTag": "起跑线等5部影片特惠"
			},
			"referencePrice": "0",
			"score": 914.28577,
			"sellPrice": "23.9",
			"shopId": 93539031,
			"tag": {
				"allowRefund": 1,
				"buyout": 0,
				"cityCardTag": 0,
				"deal": 0,
				"endorse": 1,
				"hallTypeVOList": [],
				"sell": 1,
				"snack": 1,
				"vipTag": "折扣卡"
			}
		}, {
			"addr": "门头沟区新桥大街12号",
			"cityId": 1,
			"dis": 0,
			"follow": 0,
			"id": 182,
			"labels": [{
				"color": "#579daf",
				"name": "退"
			}, {
				"color": "#579daf",
				"name": "改签"
			}, {
				"color": "#ff9900",
				"name": "折扣卡"
			}],
			"lat": 39.9425,
			"lng": 116.10049,
			"mark": 0,
			"nm": "门头沟影剧院",
			"poiId": 3260641,
			"price": 27.9,
			"promotion": {
				"cardPromotionTag": "开卡特惠，首单2张立减10元",
				"platformActivityTag": "狂暴巨兽特惠"
			},
			"referencePrice": "0",
			"score": 913.3333,
			"sellPrice": "27.9",
			"shopId": 1767700,
			"tag": {
				"allowRefund": 1,
				"buyout": 0,
				"cityCardTag": 0,
				"deal": 0,
				"endorse": 1,
				"hallTypeVOList": [],
				"sell": 1,
				"snack": 0,
				"vipTag": "折扣卡"
			}
		}, {
			"addr": "西城区前门大街大栅栏街36号",
			"cityId": 1,
			"dis": 0,
			"follow": 0,
			"id": 263,
			"labels": [{
				"color": "#ff9900",
				"name": "小吃"
			}],
			"lat": 39.895596,
			"lng": 116.39515,
			"mark": 0,
			"nm": "大观楼电影院",
			"poiId": 89010,
			"price": 19.9,
			"promotion": {
				"platformActivityTag": "头号玩家等3部影片特惠"
			},
			"referencePrice": "60",
			"score": 907.1428,
			"sellPrice": "19.9",
			"shopId": 1767601,
			"tag": {
				"allowRefund": 0,
				"buyout": 0,
				"cityCardTag": 0,
				"deal": 0,
				"endorse": 0,
				"hallTypeVOList": [],
				"sell": 1,
				"snack": 1
			}
		}, {
			"addr": "房山区黄辛庄路口绿地缤纷城3层",
			"cityId": 1,
			"dis": 0,
			"follow": 0,
			"id": 13618,
			"labels": [{
				"color": "#ff9900",
				"name": "小吃"
			}, {
				"color": "#ff9900",
				"name": "折扣卡"
			}],
			"lat": 39.756683,
			"lng": 116.160515,
			"mark": 0,
			"nm": "SFC上影影城(房山绿地店)",
			"poiId": 52294367,
			"price": 19.9,
			"promotion": {
				"cardPromotionTag": "开卡特惠，首单2张立减10元",
				"platformActivityTag": "头号玩家等5部影片特惠"
			},
			"referencePrice": "0",
			"score": 904.6512,
			"sellPrice": "19.9",
			"shopId": 61365379,
			"tag": {
				"allowRefund": 0,
				"buyout": 0,
				"cityCardTag": 0,
				"deal": 0,
				"endorse": 0,
				"hallType": ["60帧厅"],
				"hallTypeVOList": [],
				"sell": 1,
				"snack": 1,
				"vipTag": "折扣卡"
			}
		}, {
			"addr": "房山区良乡拱辰大街31号",
			"cityId": 1,
			"dis": 0,
			"follow": 0,
			"id": 145,
			"labels": [{
				"color": "#579daf",
				"name": "退"
			}, {
				"color": "#579daf",
				"name": "改签"
			}, {
				"color": "#ff9900",
				"name": "小吃"
			}, {
				"color": "#ff9900",
				"name": "折扣卡"
			}],
			"lat": 39.73799,
			"lng": 116.141685,
			"mark": 0,
			"nm": "良乡影剧院",
			"poiId": 1436368,
			"price": 22.9,
			"promotion": {
				"cardPromotionTag": "开卡特惠，首单2张立减10元",
				"platformActivityTag": "狂暴巨兽特惠"
			},
			"referencePrice": "30",
			"score": 892.8572,
			"sellPrice": "22.9",
			"shopId": 1767697,
			"tag": {
				"allowRefund": 1,
				"buyout": 0,
				"cityCardTag": 0,
				"deal": 0,
				"endorse": 1,
				"hallTypeVOList": [],
				"sell": 1,
				"snack": 1,
				"vipTag": "折扣卡"
			}
		}, {
			"addr": "东城区香河园路1号当代MOMA北区T4座（近东直门公交枢纽）",
			"cityId": 1,
			"dis": 0,
			"follow": 0,
			"id": 94,
			"labels": [{
				"color": "#ff9900",
				"name": "小吃"
			}],
			"lat": 39.950455,
			"lng": 116.43878,
			"mark": 0,
			"nm": "百老汇电影中心(万国城店)",
			"poiId": 1076062,
			"price": 29.9,
			"promotion": {
				"platformActivityTag": "头号玩家等3部影片特惠"
			},
			"referencePrice": "80",
			"score": 887.5,
			"sellPrice": "29.9",
			"shopId": 3129577,
			"tag": {
				"allowRefund": 0,
				"buyout": 0,
				"cityCardTag": 0,
				"deal": 0,
				"endorse": 0,
				"hallTypeVOList": [],
				"sell": 1,
				"snack": 1
			}
		}, {
			"addr": "通州区马驹桥镇百尚生活广场3楼",
			"cityId": 1,
			"dis": 0,
			"follow": 0,
			"id": 6227,
			"labels": [{
				"color": "#579daf",
				"name": "退"
			}, {
				"color": "#579daf",
				"name": "改签"
			}],
			"lat": 39.752598,
			"lng": 116.54536,
			"mark": 0,
			"nm": "百尚影城",
			"poiId": 2371476,
			"price": 27.9,
			"promotion": {
				"platformActivityTag": "头号玩家等3部影片特惠"
			},
			"referencePrice": "0",
			"score": 886.3636,
			"sellPrice": "27.9",
			"shopId": 6421735,
			"tag": {
				"allowRefund": 1,
				"buyout": 0,
				"cityCardTag": 0,
				"deal": 0,
				"endorse": 1,
				"hallTypeVOList": [],
				"sell": 1,
				"snack": 0
			}
		}, {
			"addr": "丰台区开阳路8号悦秀城6层",
			"cityId": 1,
			"dis": 0,
			"follow": 0,
			"id": 15859,
			"labels": [{
				"color": "#579daf",
				"name": "退"
			}, {
				"color": "#579daf",
				"name": "改签"
			}, {
				"color": "#ff9900",
				"name": "小吃"
			}, {
				"color": "#ff9900",
				"name": "折扣卡"
			}, {
				"color": "#579daf",
				"name": "杜比全景声厅",
				"url": ""
			}],
			"lat": 39.868313,
			"lng": 116.375984,
			"mark": 0,
			"nm": "DMG国际影城(悦秀店)",
			"poiId": 94444126,
			"price": 19.9,
			"promotion": {
				"cardPromotionTag": "开卡特惠，首单2张立减8元",
				"platformActivityTag": "头号玩家等4部影片特惠"
			},
			"referencePrice": "0",
			"score": 885.71423,
			"sellPrice": "19.9",
			"shopId": 66240192,
			"tag": {
				"allowRefund": 1,
				"buyout": 0,
				"cityCardTag": 0,
				"deal": 0,
				"endorse": 1,
				"hallType": ["杜比全景声厅"],
				"hallTypeVOList": [{
					"name": "杜比全景声厅",
					"url": ""
				}],
				"sell": 1,
				"snack": 1,
				"vipTag": "折扣卡"
			}
		}],
		"ct_pois": [{
			"ct_poi": "936879945111165696_a15280_c0",
			"poiid": 99389254
		}, {
			"ct_poi": "936879945111165696_a17280_c1",
			"poiid": 156648558
		}, {
			"ct_poi": "936879945111165696_a23901_c2",
			"poiid": 160306126
		}, {
			"ct_poi": "936879945111165696_a182_c3",
			"poiid": 3260641
		}, {
			"ct_poi": "936879945111165696_a263_c4",
			"poiid": 89010
		}, {
			"ct_poi": "936879945111165696_a13618_c5",
			"poiid": 52294367
		}, {
			"ct_poi": "936879945111165696_a145_c6",
			"poiid": 1436368
		}, {
			"ct_poi": "936879945111165696_a94_c7",
			"poiid": 1076062
		}, {
			"ct_poi": "936879945111165696_a6227_c8",
			"poiid": 2371476
		}, {
			"ct_poi": "936879945111165696_a15859_c9",
			"poiid": 94444126
		}],
		"paging": {
			"hasMore": true,
			"limit": 10,
			"offset": 0,
			"total": 218
		}
	},
	"success": true
}